{
    "name": "Hello World GitLab 7",
    "scans": [
        {
            "scan_config_request": {
                "target_url": {
                    "url": "http://www.example.com"
                }
            }
        }
    ],
    "schedule": {
        "duration": {
            "length": 1,
            "unit": "DAY"
        },
        "scheduled": true,
        "now": true
    }
}
